{
    "data" :[
    {
        "image":"https://rukminim1.flixcart.com/image/240/320/jtsz3bk0/dress/w/g/v/m-8159-zima-leto-original-imaffypag2nrk4wb.jpeg?q=80",
        "name":"Dresses & Tops",
        "discount":"From 99"
    },
    {
        "image":"https://rukminim1.flixcart.com/flap/240/240/image/787a97ab295b1253.jpg?q=80",
        "name":"Juicer Mixer",
        "discount":"Upto 70% Off"
    },
    {
       "image":"https://rukminim1.flixcart.com/flap/240/240/image/529f25178baf02ee.jpg?q=80",
       "name":"Hand Tools",
       "discount":"Starting @99"
    },
    {
        "image":"https://rukminim1.flixcart.com/flap/240/240/image/ef402bccf2a543e8.jpg?q=80",
        "name":"Memory Cards",
        "discount":"Extra 100 Off"
     }
]
}
