{
    "data" :[
    {
        "image":"https://rukminim1.flixcart.com/image/240/240/jt641ow0/mobile/d/w/k/mi-redmi-note-7-pro-na-original-imafe4bbyfppbnuu.jpeg?q=80",
        "name":"Redmi Note 7 Pro",
        "discount":"From @44,900"
    },
    {
        "image":"https://rukminim1.flixcart.com/image/240/240/jvtujrk0/mobile/h/6/d/mi-redmi-note-7s-m1901f71-original-imafe48yggp2za54.jpeg?q=80",
        "name":"Redmi Note 7s",
        "discount":"Trending Range"
    },
    {
       "image":"https://rukminim1.flixcart.com/image/240/240/jtrjngw0/mobile/s/r/t/realme-3-rmx1825-original-imaferd5zvhurjhg.jpeg?q=80",
       "name":"Realme 3",
       "discount":"1TB HDD  "
    },
    {
        "image":"https://rukminim1.flixcart.com/image/240/240/jsyyufk0/mobile/n/5/r/samsung-galaxy-a30-sm-a305fzbfins-original-imafefgg2vhezgr7.jpeg?q=80",
        "name":"Samsung A30",
        "discount":"From @10,999"
     }
]
}
